\addvspace {10\p@ }
\addvspace {10\p@ }
\addvspace {10\p@ }
\addvspace {10\p@ }
\addvspace {10\p@ }
\addvspace {10\p@ }
\addvspace {10\p@ }
\contentsline {table}{\numberline {3.1}{\ignorespaces Signal MC samples - mass points and proper and lab-frame lifetimes.\relax }}{26}{table.caption.18}% 
\contentsline {table}{\numberline {3.2}{\ignorespaces The di-jet MC sample slices' $p_{\mathrm {T}}$\nobreakspace {}ranges, cross-sections, and filter efficiencies. \relax }}{27}{table.caption.19}% 
\addvspace {10\p@ }
\contentsline {table}{\numberline {4.1}{\ignorespaces Track parameter requirements for inside-out standard and large radius tracks\relax }}{35}{table.caption.20}% 
\addvspace {10\p@ }
\contentsline {table}{\numberline {5.1}{\ignorespaces Requirements of the MSVXs in events used in the analysis, from the work presented in\nobreakspace {}\cite {EXOT-2017-05}. \relax }}{42}{table.caption.23}% 
\contentsline {table}{\numberline {5.2}{\ignorespaces Requirements of the IDVXs in events used in the analysis.\relax }}{43}{table.caption.24}% 
\contentsline {table}{\numberline {5.3}{\ignorespaces Fiducial volume considered for LLP decays in the ID and MS\relax }}{54}{table.caption.35}% 
\addvspace {10\p@ }
\addvspace {10\p@ }
\contentsline {table}{\numberline {7.1}{\ignorespaces Systematic uncertainties associated to the MSVX reconstruction and the muon RoI cluster trigger in the Higgs scalar boson signal samples, resulting from the trigger reconstruction, the pileup and the PDF uncertainties. Listed separately for the barrel (B) and the endcaps (E). \relax }}{89}{table.caption.62}% 
\contentsline {table}{\numberline {7.2}{\ignorespaces Systematic uncertainties associated to the MSVX reconstruction and the muon RoI Cluster trigger in the $\Phi $ scalar boson signal samples, resulting from the trigger reconstruction, the pileup and the PDF uncertainties. Listed separately for the barrel (B) and the endcaps (E). \relax }}{89}{table.caption.63}% 
\addvspace {10\p@ }
\contentsline {table}{\numberline {8.1}{\ignorespaces Excluded c$\tau $ [m] ranges for the Higgs to LLPs at a 15\% $BR$, from the Run 1 search for a Higgs to hidden valley scalar decaying in the ID and MS or MS, compared to those set by this search alone. \relax }}{97}{table.caption.69}% 
\addvspace {10\p@ }
\addvspace {10\p@ }
\addvspace {10\p@ }
\contentsline {table}{\numberline {B.1}{\ignorespaces Cutflow numbers for all samples with a Higgs propagator or LLP with a mass of approximately 50\nobreakspace {}GeV. Here, `Good MSVX' includes all the MSVX selection requirements described in Table\nobreakspace {}\ref {table:MSVXreqs} and `IDVX' includes all selections in Table\nobreakspace {}\ref {table:IDVXreqs} except those on vertex mass and number of tracks.\relax }}{116}{table.caption.85}% 
\contentsline {table}{\numberline {B.2}{\ignorespaces Cutflow numbers for all samples with a Higgs propagator or LLP with a mass of approximately 50\nobreakspace {}GeV. Here, `Good MSVX' includes all the MSVX selection requirements described in Table\nobreakspace {}\ref {table:MSVXreqs} and `IDVX' includes all requirements in Table\nobreakspace {}\ref {table:IDVXreqs} except those on vertex mass and number of tracks.\relax }}{117}{table.caption.86}% 
\contentsline {table}{\numberline {B.3}{\ignorespaces Relative efficiency for each selection for all samples with a Higgs propagator or LLP with a mass of approximately 50\nobreakspace {}GeV, taking into account fiducial volume restrictions on the generated LLP decays. Here, `Good MSVX' includes all the MSVX selection requirements described in Table\nobreakspace {}\ref {table:MSVXreqs} and `IDVX' includes all selections in Table\nobreakspace {}\ref {table:IDVXreqs} except those on vertex mass and number of tracks.\relax }}{118}{table.caption.87}% 
