\addvspace {10\p@ }
\addvspace {10\p@ }
\addvspace {10\p@ }
\addvspace {10\p@ }
\addvspace {10\p@ }
\contentsline {figure}{\numberline {1.1}{\ignorespaces The quarks, leptons, and bosons that are the fundamental building blocks in the SM, including their spin, and the interactions between the fermions and the guage bosons\nobreakspace {}\cite {UZH:SMpic}.\relax }}{5}{figure.caption.8}% 
\contentsline {figure}{\numberline {1.2}{\ignorespaces The schematic visualization of the Hidden Valley, from Ref.\nobreakspace {}\cite {Heavy_HV}, representing the (potential) relative energy scales of the SM, Hidden Valley, the energy barrier between the two, and the possible reach of the LEP and LHC colliders.\relax }}{10}{figure.caption.9}% 
\contentsline {figure}{\numberline {1.3}{\ignorespaces Decay modes in a Hidden Valley scenario in which there are two light HV ``quarks" which combine to form HV ``hadrons" which are stable or decay back to SM fermion pairs (Figure recreated from the left-hand side of Figure\nobreakspace {}1 in Ref.\nobreakspace {}\cite {EchoesHV}).\relax }}{12}{figure.caption.10}% 
\contentsline {figure}{\numberline {1.4}{\ignorespaces Diagram for a Higgs or heavy scalar decaying to displaced hadronic jets via a hidden sector\nobreakspace {}\cite {EXOT-2017-05}.\relax }}{13}{figure.caption.11}% 
\addvspace {10\p@ }
\contentsline {figure}{\numberline {2.1}{\ignorespaces The ATLAS detector\nobreakspace {}\cite {PERF-2007-01}. People for scale.\relax }}{15}{figure.caption.12}% 
\contentsline {figure}{\numberline {2.2}{\ignorespaces The $R-z$ cross-section of the ID of the ATLAS detector\nobreakspace {}\cite {ID_RUN2}. The lower-lefthand inset shows an enlarged version of the barrel of the pixel detector, and the lower-righthand inset displays a table describing the radial coverage of the three ID sub-systems. \relax }}{16}{figure.caption.13}% 
\contentsline {figure}{\numberline {2.3}{\ignorespaces The $R-z$ cross-section of the MS of the ATLAS detector\nobreakspace {}\cite {PERF-2013-01}. The MDTs are shown as green (cyan) blocks in the barrel (endcaps), the CSCs are represented in yellow, the TGCs in purple, and the RPCs as black lines. The dashed blue lines represent possible paths of high energy $\mu $'s through the MS. \relax }}{19}{figure.caption.14}% 
\contentsline {figure}{\numberline {2.4}{\ignorespaces A schematic representation of the ATLAS L1 and HLT trigger system\nobreakspace {}\cite {TRIG-2016-01}. The FTK shown here is still being commissioned and was not employed during 2016 data taking. \relax }}{20}{figure.caption.15}% 
\addvspace {10\p@ }
\contentsline {figure}{\numberline {3.1}{\ignorespaces The (a) integrated luminosity delivered by the LHC and collected by the ATLAS detector in 2016 p-p data and (b) the mean number of interactions per crossing in the events in ATLAS during that time\nobreakspace {}\cite {LumiPubRun2}. \relax }}{22}{figure.caption.16}% 
\contentsline {subfigure}{\numberline {(a)}{\ignorespaces {}}}{22}{subfigure.1.1}% 
\contentsline {subfigure}{\numberline {(b)}{\ignorespaces {}}}{22}{subfigure.1.2}% 
\contentsline {figure}{\numberline {3.2}{\ignorespaces The $\delimiter "426830A \mu \delimiter "526930B $\nobreakspace {}distribution in a MC sample, without pileup re-weighting applied (blue squares) and with the re-weighting applied (red triangles). \relax }}{25}{figure.caption.17}% 
\addvspace {10\p@ }
\contentsline {figure}{\numberline {4.1}{\ignorespaces Comparison of the vertex reconstruction efficiency for a Higgs boson decaying to a 55 GeV mass LLP, using only standard tracking vs using standard and large radius tracking for (a) all reconstructed vertices in the signal MC samples and (b) vertices passing the IDVX selection criteria used in the analysis.\relax }}{35}{figure.caption.21}% 
\contentsline {subfigure}{\numberline {(a)}{\ignorespaces {Efficiency for all vertices}}}{35}{subfigure.1.1}% 
\contentsline {subfigure}{\numberline {(b)}{\ignorespaces {Efficiency for good vertices}}}{35}{subfigure.1.2}% 
\contentsline {figure}{\numberline {4.2}{\ignorespaces The construction of tracklets from straight-line segments in each ML of the MDT chambers\nobreakspace {}\cite {PERF-2013-01}. \relax }}{37}{figure.caption.22}% 
\addvspace {10\p@ }
\contentsline {figure}{\numberline {5.1}{\ignorespaces Material maps created from displaced vertices in minimum bias data\nobreakspace {}\cite {SUSY-2016-08}.\relax }}{44}{figure.caption.25}% 
\contentsline {subfigure}{\numberline {(a)}{\ignorespaces {}}}{44}{subfigure.1.1}% 
\contentsline {subfigure}{\numberline {(b)}{\ignorespaces {}}}{44}{subfigure.1.2}% 
\contentsline {figure}{\numberline {5.2}{\ignorespaces Un-matched and truth-matched vertex fractions versus vertex R [mm] for one signal MC mass point. The fractions are shown with and without the restrictions to $n_{\mathrm {trk}}$\nobreakspace {}$> 2$. The dashed lines represent the positions of the layers of the pixel detector and the first layer of the SCT.\relax }}{45}{figure.caption.26}% 
\contentsline {figure}{\numberline {5.3}{\ignorespaces Linear distributions of $n_{\mathrm {trk}}$\nobreakspace {}for signal MC samples and RPVLL background events, for vertices which pass all other selection requirements in Table\nobreakspace {}\ref {table:IDVXreqs}. Each curve is normalized to unity. A range of mass points are shown in (a), (b) shows 125 GeV\nobreakspace {}Higgs$\rightarrow ss$ samples, (c) shows $\Phi $ mass 1000 GeV\nobreakspace {}$\rightarrow ss$, (d) shows LLP mass 50-55 GeV.\relax }}{47}{figure.caption.27}% 
\contentsline {subfigure}{\numberline {(a)}{\ignorespaces {}}}{47}{subfigure.3.1}% 
\contentsline {subfigure}{\numberline {(b)}{\ignorespaces {}}}{47}{subfigure.3.2}% 
\contentsline {subfigure}{\numberline {(c)}{\ignorespaces {}}}{47}{subfigure.3.3}% 
\contentsline {subfigure}{\numberline {(d)}{\ignorespaces {}}}{47}{subfigure.3.4}% 
\contentsline {figure}{\numberline {5.4}{\ignorespaces Logrithmic distributions of numbers of tracks per vertex for signal MC samples and RPVLL background events, for vertices which pass all other selection requirements in Table\nobreakspace {}\ref {table:IDVXreqs}. Each curve is normalized to unity. A range of mass points are shown in (a), (b) shows 125 GeV\nobreakspace {}Higgs$\rightarrow $ss samples, (c) shows $\Phi $ mass 1000 GeV\nobreakspace {}$\rightarrow ss$, (d) shows LLP mass 50-55 GeV.\relax }}{48}{figure.caption.28}% 
\contentsline {subfigure}{\numberline {(a)}{\ignorespaces {}}}{48}{subfigure.4.1}% 
\contentsline {subfigure}{\numberline {(b)}{\ignorespaces {}}}{48}{subfigure.4.2}% 
\contentsline {subfigure}{\numberline {(c)}{\ignorespaces {}}}{48}{subfigure.4.3}% 
\contentsline {subfigure}{\numberline {(d)}{\ignorespaces {}}}{48}{subfigure.4.4}% 
\contentsline {figure}{\numberline {5.5}{\ignorespaces The quantity $\frac {S}{\sqrt {S+B}}$, in which $S$ is the scaled number of signal vertices and $B$ is the scaled number of background vertices, for all vertices that pass a given $n_{\mathrm {trk}}$ selection (as well as passing the other IDVX selection requirements outlined in Table\nobreakspace {}\ref {table:IDVXreqs}), for (a) a Higgs mass propagator and (b) a $\Phi $ mass of 200 GeV and and LLP mass of 8 GeV.\relax }}{49}{figure.caption.29}% 
\contentsline {subfigure}{\numberline {(a)}{\ignorespaces {}}}{49}{subfigure.5.1}% 
\contentsline {subfigure}{\numberline {(b)}{\ignorespaces {}}}{49}{subfigure.5.2}% 
\contentsline {figure}{\numberline {5.6}{\ignorespaces Distributions of $m_{\mathrm {IDVX}}$\nobreakspace {}for signal MC samples and RPVLL background events, for vertices which pass all other selection requirements in Table\nobreakspace {}\ref {table:IDVXreqs}. Each curve is normalized to unity. A range of mass points are shown in (a), (b) shows 125 GeV\nobreakspace {}Higgs$\rightarrow $ss samples, (c) shows $\Phi $ mass 1000 GeV\nobreakspace {}$\rightarrow ss$, (d) shows LLP mass 50-55 GeV.\relax }}{50}{figure.caption.30}% 
\contentsline {subfigure}{\numberline {(a)}{\ignorespaces {}}}{50}{subfigure.6.1}% 
\contentsline {subfigure}{\numberline {(b)}{\ignorespaces {}}}{50}{subfigure.6.2}% 
\contentsline {subfigure}{\numberline {(c)}{\ignorespaces {}}}{50}{subfigure.6.3}% 
\contentsline {subfigure}{\numberline {(d)}{\ignorespaces {}}}{50}{subfigure.6.4}% 
\contentsline {figure}{\numberline {5.7}{\ignorespaces The quantity $\frac {S}{\sqrt {S+B}}$, in which $S$ is the scaled number of signal vertices and $B$ is the scaled number of background vertices, for all vertices that pass a given vertex mass selection (as well as passing the other IDVX selection requirements outlined in Table\nobreakspace {}\ref {table:IDVXreqs}), for (a),(b) a Higgs mass propagator and (c),(d) a $\Phi $ mass of 200 GeV and and LLP mass of 8 GeV.\relax }}{51}{figure.caption.31}% 
\contentsline {subfigure}{\numberline {(a)}{\ignorespaces {}}}{51}{subfigure.7.1}% 
\contentsline {subfigure}{\numberline {(b)}{\ignorespaces {}}}{51}{subfigure.7.2}% 
\contentsline {subfigure}{\numberline {(c)}{\ignorespaces {}}}{51}{subfigure.7.3}% 
\contentsline {subfigure}{\numberline {(d)}{\ignorespaces {}}}{51}{subfigure.7.4}% 
\contentsline {figure}{\numberline {5.8}{\ignorespaces Distributions of the distance in $\Delta \mathrm {R}$ between a good IDVX and the nearest good MSVX in the event, for vertices which pass all other selection requirements in Table\nobreakspace {}\ref {table:IDVXreqs}. Each curve is normalized to unity. A range of mass points are shown in (a), (b) shows 125 GeV\nobreakspace {}Higgs$\rightarrow $ss samples, (c) shows $\Phi $ mass 1000 GeV\nobreakspace {}$\rightarrow ss$, (d) shows LLP mass 50-55 GeV.\relax }}{52}{figure.caption.32}% 
\contentsline {subfigure}{\numberline {(a)}{\ignorespaces {}}}{52}{subfigure.8.1}% 
\contentsline {subfigure}{\numberline {(b)}{\ignorespaces {}}}{52}{subfigure.8.2}% 
\contentsline {subfigure}{\numberline {(c)}{\ignorespaces {}}}{52}{subfigure.8.3}% 
\contentsline {subfigure}{\numberline {(d)}{\ignorespaces {}}}{52}{subfigure.8.4}% 
\contentsline {figure}{\numberline {5.9}{\ignorespaces The $\Delta $R (a), $\Delta \eta $ (b), and $\Delta \phi $ (c) separation between good MSVXs and (otherwise) good IDVXs with any number of tracks in unblinded region B events in data.\relax }}{53}{figure.caption.33}% 
\contentsline {subfigure}{\numberline {(a)}{\ignorespaces {}}}{53}{subfigure.9.1}% 
\contentsline {subfigure}{\numberline {(b)}{\ignorespaces {}}}{53}{subfigure.9.2}% 
\contentsline {subfigure}{\numberline {(c)}{\ignorespaces {}}}{53}{subfigure.9.3}% 
\contentsline {figure}{\numberline {5.10}{\ignorespaces The $\Delta $R separation between good MSVXs and (otherwise) good IDVXs in which the IDVXs have (a) $n_{\mathrm {trk}}$\nobreakspace {}= 2, (b) $n_{\mathrm {trk}}$\nobreakspace {}= 3, and (c) $n_{\mathrm {trk}}$\nobreakspace {}$\geq $ 4.\relax }}{54}{figure.caption.34}% 
\contentsline {subfigure}{\numberline {(a)}{\ignorespaces {}}}{54}{subfigure.10.1}% 
\contentsline {subfigure}{\numberline {(b)}{\ignorespaces {}}}{54}{subfigure.10.2}% 
\contentsline {subfigure}{\numberline {(c)}{\ignorespaces {}}}{54}{subfigure.10.3}% 
\contentsline {figure}{\numberline {5.11}{\ignorespaces Vertex selection efficiency (Eq.\nobreakspace {}\ref {eq:VtxEff}) for Higgs$\rightarrow ss$ mass points, vs LLP decay R (a) and z (b), the reconstruction vertices are required to meet all good vertex for IDVXs in Table\nobreakspace {}\ref {table:IDVXreqs}, the LLP decays meet the fiducial volume requirements in Table\nobreakspace {}\ref {table:fidVol}. To be considered matched the vertex must be within 5 mm of the LLP decay position and at least two of the tracks in the vertex must be signal matched. The dashed red lines represent some of the layers of the inner detector material. \relax }}{55}{figure.caption.36}% 
\contentsline {subfigure}{\numberline {(a)}{\ignorespaces {}}}{55}{subfigure.11.1}% 
\contentsline {subfigure}{\numberline {(b)}{\ignorespaces {}}}{55}{subfigure.11.2}% 
\contentsline {figure}{\numberline {5.12}{\ignorespaces Vertex selection efficiency (Eq.\nobreakspace {}\ref {eq:VtxEff}) for 1000 GeV$\Phi \rightarrow ss$ mass points, vs LLP decay R (a) and z (b), the reconstruction vertices are required to meet all good vertex for IDVXs in Table\nobreakspace {}\ref {table:IDVXreqs}, the LLP decays meet the fiducial volume requirements in Table\nobreakspace {}\ref {table:fidVol}. To be considered matched the vertex must be within 5 mm of the LLP decay position and at least two of the tracks in the vertex must be signal matched. The dashed red lines represent some of the layers of the inner detector material. \relax }}{56}{figure.caption.37}% 
\contentsline {subfigure}{\numberline {(a)}{\ignorespaces {}}}{56}{subfigure.12.1}% 
\contentsline {subfigure}{\numberline {(b)}{\ignorespaces {}}}{56}{subfigure.12.2}% 
\contentsline {figure}{\numberline {5.13}{\ignorespaces Vertex selection efficiency (Eq.\nobreakspace {}\ref {eq:VtxEff}) for mass points with a 50 GeV LLP, vs LLP decay R (a) and z (b), the reconstruction vertices are required to meet all good vertex for IDVXs in Table\nobreakspace {}\ref {table:IDVXreqs}, the LLP decays meet the fiducial volume requirements in Table\nobreakspace {}\ref {table:fidVol}. To be considered matched the vertex must be within 5 mm of the LLP decay position and at least two of the tracks in the vertex must be signal matched. The dashed red lines represent some of the layers of the inner detector material. \relax }}{56}{figure.caption.38}% 
\contentsline {subfigure}{\numberline {(a)}{\ignorespaces {}}}{56}{subfigure.13.1}% 
\contentsline {subfigure}{\numberline {(b)}{\ignorespaces {}}}{56}{subfigure.13.2}% 
\contentsline {figure}{\numberline {5.14}{\ignorespaces Impact on the IDVX selection efficiency of the (a) distance from the PV, $\chi ^2/n_{\mathrm {nDoF}}$, or material veto, (b) number of tracks then vertex mass requirements from Table\nobreakspace {}\ref {table:IDVXreqs}, compared to having no selection requirements on the vertices in the sample with a 400 GeV $\Phi $ decaying to a 50 GeV scalar.\relax }}{57}{figure.caption.39}% 
\contentsline {subfigure}{\numberline {(a)}{\ignorespaces {}}}{57}{subfigure.14.1}% 
\contentsline {subfigure}{\numberline {(b)}{\ignorespaces {}}}{57}{subfigure.14.2}% 
\contentsline {figure}{\numberline {5.15}{\ignorespaces Impact of the all selections from Table\nobreakspace {}\ref {table:IDVXreqs} on the IDVX selection efficiency, starting with the selection on number of tracks in the sample with a 400 GeV $\Phi $ decaying to a 50 GeV scalar.\relax }}{58}{figure.caption.40}% 
\contentsline {figure}{\numberline {5.16}{\ignorespaces IDVX residuals distributions for (a),(b) LLP r - IDVX r (c),(d) LLP z - IDVX z for vertices that pass all the vertex selection requirements in Table\nobreakspace {}\ref {table:IDVXreqs} except those on $n_{\mathrm {trk}}$\nobreakspace {}and $m_{\mathrm {IDVX}}$\nobreakspace {}(a),(c) and considering those vertices passing a selection of $m_{\mathrm {IDVX}}$\nobreakspace {}$>$ 3 GeV and $n_{\mathrm {trk}}$\nobreakspace {}$\geq 4$ (b),(d) in samples with a 125 GeV Higgs.\relax }}{59}{figure.caption.41}% 
\contentsline {subfigure}{\numberline {(a)}{\ignorespaces {}}}{59}{subfigure.16.1}% 
\contentsline {subfigure}{\numberline {(b)}{\ignorespaces {}}}{59}{subfigure.16.2}% 
\contentsline {subfigure}{\numberline {(c)}{\ignorespaces {}}}{59}{subfigure.16.3}% 
\contentsline {subfigure}{\numberline {(d)}{\ignorespaces {}}}{59}{subfigure.16.4}% 
\contentsline {figure}{\numberline {5.17}{\ignorespaces IDVX residuals distributions for (a),(b) LLP r - IDVX r (c),(d) LLP z - IDVX z for vertices that pass all the vertex selection requirements in Table\nobreakspace {}\ref {table:IDVXreqs} except those on $n_{\mathrm {trk}}$\nobreakspace {}and vertex mass (a),(c) and considering those vertices passing a selection of $m_{\mathrm {IDVX}}$\nobreakspace {}$>$ 3 GeV and $n_{\mathrm {trk}}$\nobreakspace {}$\geq 4$ (b),(d) in samples with a 1000 GeV $\Phi $.\relax }}{60}{figure.caption.42}% 
\contentsline {subfigure}{\numberline {(a)}{\ignorespaces {}}}{60}{subfigure.17.1}% 
\contentsline {subfigure}{\numberline {(b)}{\ignorespaces {}}}{60}{subfigure.17.2}% 
\contentsline {subfigure}{\numberline {(c)}{\ignorespaces {}}}{60}{subfigure.17.3}% 
\contentsline {subfigure}{\numberline {(d)}{\ignorespaces {}}}{60}{subfigure.17.4}% 
\contentsline {figure}{\numberline {5.18}{\ignorespaces The cutflow for all is shown for all Higgs$\rightarrow ss$ mass points (a), for all 1000 GeV $\Phi \rightarrow ss$ mass points (b), and for all is shown for all mass points with a 50-55 GeV LLP (c). Here, `Good MSVX' includes all the MSVX selection selections described in Table\nobreakspace {}\ref {table:MSVXreqs} and `IDVX' includes all selections in Table\nobreakspace {}\ref {table:IDVXreqs} except those on vertex mass and number of tracks, which are shown in the subsequent two histogram bins.\relax }}{61}{figure.caption.43}% 
\contentsline {subfigure}{\numberline {(a)}{\ignorespaces {}}}{61}{subfigure.18.1}% 
\contentsline {subfigure}{\numberline {(b)}{\ignorespaces {}}}{61}{subfigure.18.2}% 
\contentsline {subfigure}{\numberline {(c)}{\ignorespaces {}}}{61}{subfigure.18.3}% 
\contentsline {figure}{\numberline {5.19}{\ignorespaces Comparisons between the cutflows for MC signal samples with a $\Phi $ mass 1000 GeV, showing the difference in the impact of the different selections in the cutflow with and without fiducial requirements on the LLP decays. Curves are normalized to the number of events in first bin.\relax }}{62}{figure.caption.44}% 
\contentsline {subfigure}{\numberline {(a)}{\ignorespaces {}}}{62}{subfigure.19.1}% 
\contentsline {subfigure}{\numberline {(b)}{\ignorespaces {}}}{62}{subfigure.19.2}% 
\contentsline {subfigure}{\numberline {(c)}{\ignorespaces {}}}{62}{subfigure.19.3}% 
\contentsline {figure}{\numberline {5.20}{\ignorespaces Cutflows for signal (a) and background (b) events in data. For the full signal region selection, and the IDVX selection, respectively.\relax }}{63}{figure.caption.45}% 
\contentsline {subfigure}{\numberline {(a)}{\ignorespaces {}}}{63}{subfigure.20.1}% 
\contentsline {subfigure}{\numberline {(b)}{\ignorespaces {}}}{63}{subfigure.20.2}% 
\addvspace {10\p@ }
\contentsline {figure}{\numberline {6.1}{\ignorespaces The ABCD plane, with events passing the signal region requirements through the presence of a good MSVX, either containing or agnostic to signal region IDVXs ($A$ and $B$), and background events, which contain or are agnostic to signal region IDVXs ($C$ and $D$).\relax }}{66}{figure.caption.46}% 
\contentsline {figure}{\numberline {6.2}{\ignorespaces The percentage of signal MC events selected by the background event requirements.\relax }}{67}{figure.caption.47}% 
\contentsline {figure}{\numberline {6.3}{\ignorespaces The ABCD plane, with the addition of the $B'$ and $C'$ regions, containing IDVXs with a $m_{\mathrm {IDVX}}$\nobreakspace {}$>$ 3 GeV and $n_{\mathrm {trk}}$\nobreakspace {}= 2.\relax }}{69}{figure.caption.48}% 
\contentsline {figure}{\numberline {6.4}{\ignorespaces The normalized distributions of the (a) R and (b) z positions of the 2-track vertices for regions $A'$ and $C'$, and (c),(d) the ratios of the $A'$ region to the $C'$ region. The red dashed lines in (c) and (d) represent $1\pm 0.1$.\relax }}{70}{figure.caption.49}% 
\contentsline {subfigure}{\numberline {(a)}{\ignorespaces {}}}{70}{subfigure.4.1}% 
\contentsline {subfigure}{\numberline {(b)}{\ignorespaces {}}}{70}{subfigure.4.2}% 
\contentsline {subfigure}{\numberline {(c)}{\ignorespaces {}}}{70}{subfigure.4.3}% 
\contentsline {subfigure}{\numberline {(d)}{\ignorespaces {}}}{70}{subfigure.4.4}% 
\contentsline {figure}{\numberline {6.5}{\ignorespaces The normalized distributions of the (a) $\eta $ and(b) $\phi $ of the 2-track vertices for regions $A'$ and $C'$, and (c),(d) the ratio of the $A'$ region to the $C'$ region. The red dashed lines in (c) and (d) represent $1\pm 0.1$.\relax }}{71}{figure.caption.50}% 
\contentsline {subfigure}{\numberline {(a)}{\ignorespaces {}}}{71}{subfigure.5.1}% 
\contentsline {subfigure}{\numberline {(b)}{\ignorespaces {}}}{71}{subfigure.5.2}% 
\contentsline {subfigure}{\numberline {(c)}{\ignorespaces {}}}{71}{subfigure.5.3}% 
\contentsline {subfigure}{\numberline {(d)}{\ignorespaces {}}}{71}{subfigure.5.4}% 
\contentsline {figure}{\numberline {6.6}{\ignorespaces The normalized distributions of the $m_{\mathrm {IDVX}}$\nobreakspace {}of 2-track vertices for regions $A'$ and $C'$ (a), and the ratio of the $A'$ region to the $C'$ region (b). The red dashed lines in (b) represent $1\pm 0.1$.\relax }}{72}{figure.caption.51}% 
\contentsline {subfigure}{\numberline {(a)}{\ignorespaces {}}}{72}{subfigure.6.1}% 
\contentsline {subfigure}{\numberline {(b)}{\ignorespaces {}}}{72}{subfigure.6.2}% 
\contentsline {figure}{\numberline {6.7}{\ignorespaces The ABCD plane, with the addition of the $A''$, $B''$ and $C''$ regions, containing IDVXs with 1 GeV $<$ $m_{\mathrm {IDVX}}$\nobreakspace {}$<$ 3 GeV\nobreakspace {}and $n_{\mathrm {trk}}$\nobreakspace {}= 3, and events that pass the muon RoI cluster trigger but that don't necessarily contain any good MSVXs.\relax }}{72}{figure.caption.52}% 
\contentsline {figure}{\numberline {6.8}{\ignorespaces Scaled distributions of signal (from signal MC samples) and background (from region $D$) vertices expected to be found in region $B"$. Shown for (a) 125\nobreakspace {}GeV Higgs$\rightarrow ss$ and (b) 1000\nobreakspace {}GeV $\Phi \rightarrow ss$ (b). The IDVXs are required to have vertex mass 1 $<$ mass $<$ 3\nobreakspace {}GeV and exactly 3 tracks. The ratios of the scaled number of background vertices/scaled number of signal vertices are shown in (c) and (d).\relax }}{73}{figure.caption.53}% 
\contentsline {subfigure}{\numberline {(a)}{\ignorespaces {}}}{73}{subfigure.8.1}% 
\contentsline {subfigure}{\numberline {(b)}{\ignorespaces {}}}{73}{subfigure.8.2}% 
\contentsline {subfigure}{\numberline {(c)}{\ignorespaces {}}}{73}{subfigure.8.3}% 
\contentsline {subfigure}{\numberline {(d)}{\ignorespaces {}}}{73}{subfigure.8.4}% 
\contentsline {figure}{\numberline {6.9}{\ignorespaces The jet multiplicity in events used in the background estimation, for region $D$, $B$, and $B''$ events. Jet multiplicities (a) agnostic to and (b) passing the JVT requirement.\relax }}{75}{figure.caption.54}% 
\contentsline {subfigure}{\numberline {(a)}{\ignorespaces {Jet multiplicity without JVT consideration}}}{75}{subfigure.9.1}% 
\contentsline {subfigure}{\numberline {(b)}{\ignorespaces {Jet multiplicity with JVT consideration}}}{75}{subfigure.9.2}% 
\contentsline {figure}{\numberline {6.10}{\ignorespaces The normalized jet multiplicity distributions agnostic to (a) and passing (b) the JVT requirement on the jets in regions $D$, $B$, and $B''$. The ratios of the normalized distributions are shown in (c) and (d).\relax }}{76}{figure.caption.55}% 
\contentsline {subfigure}{\numberline {(a)}{\ignorespaces {}}}{76}{subfigure.10.1}% 
\contentsline {subfigure}{\numberline {(b)}{\ignorespaces {}}}{76}{subfigure.10.2}% 
\contentsline {subfigure}{\numberline {(c)}{\ignorespaces {}}}{76}{subfigure.10.3}% 
\contentsline {subfigure}{\numberline {(d)}{\ignorespaces {}}}{76}{subfigure.10.4}% 
\contentsline {figure}{\numberline {6.11}{\ignorespaces The factor $\mathrm {F'} = \mathrm {N}_{C'} / \mathrm {N}_D, \tmspace +\thinmuskip {.1667em} \mathrm {F'} = \mathrm {N}_{A'} / \mathrm {N}_{B}$, vs the jet multiplicity, considering jets (a) agnostic to or (b) passing the JVT selection.\relax }}{77}{figure.caption.56}% 
\contentsline {subfigure}{\numberline {(a)}{\ignorespaces {}}}{77}{subfigure.11.1}% 
\contentsline {subfigure}{\numberline {(b)}{\ignorespaces {}}}{77}{subfigure.11.2}% 
\contentsline {figure}{\numberline {6.12}{\ignorespaces The factor $\mathrm {F''} = \mathrm {N}_{C''} / \mathrm {N}_D, \tmspace +\thinmuskip {.1667em} \mathrm {F''} = \mathrm {N}_{A''} / \mathrm {N}_{B''}$, vs the jet multiplicity, considering jets (a) agnostic to or (b) passing the JVT selection.\relax }}{78}{figure.caption.57}% 
\contentsline {subfigure}{\numberline {(a)}{\ignorespaces {}}}{78}{subfigure.12.1}% 
\contentsline {subfigure}{\numberline {(b)}{\ignorespaces {}}}{78}{subfigure.12.2}% 
\contentsline {figure}{\numberline {6.13}{\ignorespaces The overall factor $\mathrm {F''}$, for the 3 track vertices, low mass vertices, unscaled (black points), scaled based on the region $B$ events jet multiplicity (blue filled triangles), and scaled based on the region $B$ jet multiplicity taking into account JVT requirements (blue open triangles). Dashed lines indicate the level of agreement between the calculations of $\mathrm {F''}$, before and after scaling to the region $B$ events jet multiplicity.\relax }}{80}{figure.caption.58}% 
\addvspace {10\p@ }
\contentsline {figure}{\numberline {7.1}{\ignorespaces The comparison of the jet $p_{\mathrm {T}}$\nobreakspace {}distributions in the di-jet MC samples and in the signal region in data (minus the requirement of an IDVX). The jet $p_{\mathrm {T}}$\nobreakspace {}region from 0-200 GeV is shown in (a) and an expanded region from 0-1000 GeV is shown in (b). The jet $p_{\mathrm {T}}$\nobreakspace {}distribution in data is compared to the jet $p_{\mathrm {T}}$\nobreakspace {}distributions using the di-jet slices JZ1W-JZ7W or JZ2W-JZ7W to show that the inclusion of the JZ1W slice is important to for the shape of the low $p_{\mathrm {T}}$\nobreakspace {}distribution to match that found in data. \relax }}{83}{figure.caption.59}% 
\contentsline {subfigure}{\numberline {(a)}{\ignorespaces {}}}{83}{subfigure.1.1}% 
\contentsline {subfigure}{\numberline {(b)}{\ignorespaces {}}}{83}{subfigure.1.2}% 
\contentsline {figure}{\numberline {7.2}{\ignorespaces The data vs MC comparison of the radial decay position of the $K_S^0$ vertices, R [mm] is shown in (a), the longitudinal decay position of the vertices, z [mm] is shown in (b), the decay length of the vertices [mm] is shown in (c), and the invariant mass of the vertices [MeV] is shown in (d). The dashed lines shown in (a) represent the radial position of the layers of material in the pixel detector and the first layer of the SCT. All reconstructed $K_S^0$ candidates are included, whether they were reconstructed with standard or large radius tracks. \textit {Figures were created by J. Burzynski.}\relax }}{85}{figure.caption.60}% 
\contentsline {subfigure}{\numberline {(a)}{\ignorespaces {}}}{85}{subfigure.2.1}% 
\contentsline {subfigure}{\numberline {(b)}{\ignorespaces {}}}{85}{subfigure.2.2}% 
\contentsline {subfigure}{\numberline {(c)}{\ignorespaces {}}}{85}{subfigure.2.3}% 
\contentsline {subfigure}{\numberline {(d)}{\ignorespaces {}}}{85}{subfigure.2.4}% 
\contentsline {figure}{\numberline {7.3}{\ignorespaces The yield of the $K_S^0$ vertices reconstructed with only large radius tracks, as a function of the radial decay position of the vertex, $R$ [mm]. The vertex collection in data is normalized such that the data and MC sample events each had the same number of vertices reconstructed using only standard tracks. \textit {Figure was created by J. Burzynski.} \relax }}{86}{figure.caption.61}% 
\addvspace {10\p@ }
\contentsline {figure}{\numberline {8.1}{\ignorespaces Global efficiency vs c$\tau $ [m] for Higgs or $\Phi = 200 \tmspace +\thinmuskip {.1667em} \mathrm {GeV} \rightarrow ss$ (a) and for $\Phi = 400, \tmspace +\thinmuskip {.1667em} 600, \tmspace +\thinmuskip {.1667em}1000 \tmspace +\thinmuskip {.1667em} \mathrm {GeV} \tmspace +\thinmuskip {.1667em} \rightarrow ss$ (b).\relax }}{91}{figure.caption.64}% 
\contentsline {subfigure}{\numberline {(a)}{\ignorespaces {}}}{91}{subfigure.1.1}% 
\contentsline {subfigure}{\numberline {(b)}{\ignorespaces {}}}{91}{subfigure.1.2}% 
\contentsline {figure}{\numberline {8.2}{\ignorespaces The comparison of the lifetime extrapolation starting from the 5\nobreakspace {}m lab-frame lifetime sample (red), and starting from the 9\nobreakspace {}m lab-frame lifetime sample (blue). The efficiency at the mean generated lifetimes for each sample are included as the red (blue) points. The comparison is shown for mass points with a 125\nobreakspace {}GeV Higgs decaying to an 8\nobreakspace {}GeV (a) or 40\nobreakspace {}GeV LLP (b), for a 600\nobreakspace {}GeV $\Phi $ to a 50\nobreakspace {}GeV LLP (c), and for a 1000\nobreakspace {}GeV $\Phi $ to a 150\nobreakspace {}GeV LLP (d) Uncertainties are statistical only. \relax }}{92}{figure.caption.65}% 
\contentsline {subfigure}{\numberline {(a)}{\ignorespaces {}}}{92}{subfigure.2.1}% 
\contentsline {subfigure}{\numberline {(b)}{\ignorespaces {}}}{92}{subfigure.2.2}% 
\contentsline {subfigure}{\numberline {(c)}{\ignorespaces {}}}{92}{subfigure.2.3}% 
\contentsline {subfigure}{\numberline {(d)}{\ignorespaces {}}}{92}{subfigure.2.4}% 
\contentsline {figure}{\numberline {8.3}{\ignorespaces The event observed in the signal region, Event number 1804273557 in Run 303338. The IDVX is shown as a dark blue sphere and the associated tracks are shown in light blue. The MSVX is shown in purple, and the PV is shown in green. The event is shown in (a) zoomed in from the endcaps and in (b), zoomed out from outside the barrel. The IDVX has 4 associated tracks, a mass of 3.34\nobreakspace {}GeV, and is located at an (R,z) of (29.07,142.92)\nobreakspace {}mm and detector ($\eta $,$\phi $) of (2.30,0.014). The MSVX is located at an (R,z) of (4.97,12.45)\nobreakspace {}m and a detector ($\eta $,$\phi $) of (1.65,-2.94). \relax }}{94}{figure.caption.66}% 
\contentsline {subfigure}{\numberline {(a)}{\ignorespaces {}}}{94}{subfigure.3.1}% 
\contentsline {subfigure}{\numberline {(b)}{\ignorespaces {}}}{94}{subfigure.3.2}% 
\contentsline {figure}{\numberline {8.4}{\ignorespaces $\mathrm {CL}_{\mathrm {s}}$ limits on $BR$ for Higgs$\rightarrow $ss, assuming a $\sigma $ for the Higgs equal to that of the SM Higgs produced via ggF. The limits on the $BR$ are shown for the Higgs decaying to an (a) 8\nobreakspace {}GeV LLP, a (b) 15\nobreakspace {}GeV LLP, a (c) 25\nobreakspace {}GeV LLP, a (d) 40\nobreakspace {}GeV LLP, and an (e) 55\nobreakspace {}GeV LLP. The green and yellow bands represent the $\pm 1\sigma $ and $\pm 2\sigma $ error bands. \textit {Figures were created by J. Burzynski.} \relax }}{96}{figure.caption.67}% 
\contentsline {subfigure}{\numberline {(a)}{\ignorespaces {}}}{96}{subfigure.4.1}% 
\contentsline {subfigure}{\numberline {(b)}{\ignorespaces {}}}{96}{subfigure.4.2}% 
\contentsline {subfigure}{\numberline {(c)}{\ignorespaces {}}}{96}{subfigure.4.3}% 
\contentsline {subfigure}{\numberline {(d)}{\ignorespaces {}}}{96}{subfigure.4.4}% 
\contentsline {subfigure}{\numberline {(e)}{\ignorespaces {}}}{96}{subfigure.4.5}% 
\contentsline {figure}{\numberline {8.5}{\ignorespaces $\mathrm {CL}_{\mathrm {s}}$ limits on $BR$ for $H\rightarrow ss$, assuming a SM Higgs produced via ggF. \textit {Figure was created by J. Burzynski.} \relax }}{97}{figure.caption.68}% 
\contentsline {figure}{\numberline {8.6}{\ignorespaces $\mathrm {CL}_{\mathrm {s}}$ limits on $\sigma \times BR$ for 200\nobreakspace {}GeV $\Phi \rightarrow ss$. The limits on the $\sigma \times BR$ are shown for the 200\nobreakspace {}GeV $\Phi $ decaying to an (a) 8\nobreakspace {}GeV LLP, a (b) 25\nobreakspace {}GeV LLP, and a (c) 50\nobreakspace {}GeV LLP. The green and yellow bands represent the $\pm 1\sigma $ and $\pm 2\sigma $ error bands. \textit {Figures were created by J. Burzynski.} \relax }}{98}{figure.caption.70}% 
\contentsline {subfigure}{\numberline {(a)}{\ignorespaces {}}}{98}{subfigure.6.1}% 
\contentsline {subfigure}{\numberline {(b)}{\ignorespaces {}}}{98}{subfigure.6.2}% 
\contentsline {subfigure}{\numberline {(c)}{\ignorespaces {}}}{98}{subfigure.6.3}% 
\contentsline {figure}{\numberline {8.7}{\ignorespaces $\mathrm {CL}_{\mathrm {s}}$ limits on $\sigma \times BR$ for 400 GeV\nobreakspace {}$\Phi \rightarrow ss$. The limits on the $\sigma \times BR$ are shown for the 400\nobreakspace {}GeV $\Phi $ decaying to an (a) 50\nobreakspace {}GeV LLP and a (b) 100\nobreakspace {}GeV LLP. The green and yellow bands represent the $\pm 1\sigma $ and $\pm 2\sigma $ error bands. \textit {Figures were created by J. Burzynski.} \relax }}{99}{figure.caption.71}% 
\contentsline {subfigure}{\numberline {(a)}{\ignorespaces {}}}{99}{subfigure.7.1}% 
\contentsline {subfigure}{\numberline {(b)}{\ignorespaces {}}}{99}{subfigure.7.2}% 
\contentsline {figure}{\numberline {8.8}{\ignorespaces $\mathrm {CL}_{\mathrm {s}}$ limits on $\sigma \times BR$ for 200 and 400\nobreakspace {}GeV\nobreakspace {}$\Phi \rightarrow ss$. \textit {Figure was created by J. Burzynski.} \relax }}{99}{figure.caption.72}% 
\contentsline {figure}{\numberline {8.9}{\ignorespaces $\mathrm {CL}_{\mathrm {s}}$ limits on $\sigma \times BR$ for 400 GeV\nobreakspace {}$\Phi \rightarrow ss$. The limits on the $\sigma \times BR$ are shown for the 600\nobreakspace {}GeV $\Phi $ decaying to an (a) 50\nobreakspace {}GeV LLP and a (b) 150\nobreakspace {}GeV LLP. The green and yellow bands represent the $\pm 1\sigma $ and $\pm 2\sigma $ error bands. \textit {Figures were created by J. Burzynski.} \relax }}{100}{figure.caption.73}% 
\contentsline {subfigure}{\numberline {(a)}{\ignorespaces {}}}{100}{subfigure.9.1}% 
\contentsline {subfigure}{\numberline {(b)}{\ignorespaces {}}}{100}{subfigure.9.2}% 
\contentsline {figure}{\numberline {8.10}{\ignorespaces $\mathrm {CL}_{\mathrm {s}}$ limits on $\sigma \times BR$ for 200\nobreakspace {}GeV $\Phi \rightarrow ss$. The limits on the $\sigma \times BR$ are shown for the 200\nobreakspace {}GeV $\Phi $ decaying to a (a) 50\nobreakspace {}GeV LLP, a (b) 150\nobreakspace {}GeV LLP, and a (c) 400\nobreakspace {}GeV LLP. The green and yellow bands represent the $\pm 1\sigma $ and $\pm 2\sigma $ error bands. \textit {Figures were created by J. Burzynski.} \relax }}{101}{figure.caption.74}% 
\contentsline {subfigure}{\numberline {(a)}{\ignorespaces {}}}{101}{subfigure.10.1}% 
\contentsline {subfigure}{\numberline {(b)}{\ignorespaces {}}}{101}{subfigure.10.2}% 
\contentsline {subfigure}{\numberline {(c)}{\ignorespaces {}}}{101}{subfigure.10.3}% 
\contentsline {figure}{\numberline {8.11}{\ignorespaces $\mathrm {CL}_{\mathrm {s}}$ limits on $\sigma \times BR$ for 600 and 1000\nobreakspace {}GeV\nobreakspace {}$\Phi \rightarrow ss$. \textit {Figure was created by J. Burzynski.} \relax }}{102}{figure.caption.75}% 
\contentsline {figure}{\numberline {8.12}{\ignorespaces $CL_S$ limits on $BR$ for $H \rightarrow ss$, assuming a $\sigma $ for the Higgs equal to that of the SM Higgs produced via ggF. The limits are shown for the Higgs decaying to an (a) 8\nobreakspace {}GeV LLP, a (b) 15\nobreakspace {}GeV LLP, a (c) 25\nobreakspace {}GeV LLP, a (d) 40\nobreakspace {}GeV LLP, and an (e) 55\nobreakspace {}GeV LLP. The limits set by this analysis (green) are compared with those set by the CR+(MS1+MS2) analyses (purple), as well as the combination of all three analyses (blue). \textit {Figures were created by J. Burzynski.} \relax }}{104}{figure.caption.76}% 
\contentsline {subfigure}{\numberline {(a)}{\ignorespaces {}}}{104}{subfigure.12.1}% 
\contentsline {subfigure}{\numberline {(b)}{\ignorespaces {}}}{104}{subfigure.12.2}% 
\contentsline {subfigure}{\numberline {(c)}{\ignorespaces {}}}{104}{subfigure.12.3}% 
\contentsline {subfigure}{\numberline {(d)}{\ignorespaces {}}}{104}{subfigure.12.4}% 
\contentsline {subfigure}{\numberline {(e)}{\ignorespaces {}}}{104}{subfigure.12.5}% 
\contentsline {figure}{\numberline {8.13}{\ignorespaces $CL_S$ limits on $\sigma \times BR$ for a 200\nobreakspace {}GeV $\Phi $ decaying to an (a) 8\nobreakspace {}GeV LLP, (b) 25\nobreakspace {}GeV LLP, and a (c) 50\nobreakspace {}GeV LLP, and for a 400\nobreakspace {}GeV $\Phi $ decaying to a (d) 50\nobreakspace {}GeV LLP and an (e) 100\nobreakspace {}GeV LLP. The limits set by this analysis (green) are compared with those set by the CR+(MS1+MS2) analyses (purple), as well as the combination of all three analyses (blue). \textit {Figures were created by J. Burzynski.} \relax }}{105}{figure.caption.77}% 
\contentsline {subfigure}{\numberline {(a)}{\ignorespaces {}}}{105}{subfigure.13.1}% 
\contentsline {subfigure}{\numberline {(b)}{\ignorespaces {}}}{105}{subfigure.13.2}% 
\contentsline {subfigure}{\numberline {(c)}{\ignorespaces {}}}{105}{subfigure.13.3}% 
\contentsline {subfigure}{\numberline {(d)}{\ignorespaces {}}}{105}{subfigure.13.4}% 
\contentsline {subfigure}{\numberline {(e)}{\ignorespaces {}}}{105}{subfigure.13.5}% 
\contentsline {figure}{\numberline {8.14}{\ignorespaces $CL_S$ limits on $\sigma \times BR$ for a 600\nobreakspace {}GeV $\Phi $ decaying to an (a) 50\nobreakspace {}GeV LLP, (b) 150\nobreakspace {}GeV LLP, and for a 1000\nobreakspace {}GeV $\Phi $ decaying to a (c) 50\nobreakspace {}GeV LLP, a (d) 150\nobreakspace {}GeV LLP, and an (e) 100\nobreakspace {}GeV LLP. The limits set by this analysis (green) are compared with those set by the CR+(MS1+MS2) analyses (purple), as well as the combination of all three analyses (blue). \textit {Figures were created by J. Burzynski.} \relax }}{106}{figure.caption.78}% 
\contentsline {subfigure}{\numberline {(a)}{\ignorespaces {}}}{106}{subfigure.14.1}% 
\contentsline {subfigure}{\numberline {(b)}{\ignorespaces {}}}{106}{subfigure.14.2}% 
\contentsline {subfigure}{\numberline {(c)}{\ignorespaces {}}}{106}{subfigure.14.3}% 
\contentsline {subfigure}{\numberline {(d)}{\ignorespaces {}}}{106}{subfigure.14.4}% 
\contentsline {subfigure}{\numberline {(e)}{\ignorespaces {}}}{106}{subfigure.14.5}% 
\addvspace {10\p@ }
\addvspace {10\p@ }
\contentsline {figure}{\numberline {A.1}{\ignorespaces The (a) displaced hadron and (b) displaced lepton samples used for the LRT performance evaluation in Ref.\nobreakspace {}\cite {ATL-PHYS-PUB-2017-014}. \relax }}{110}{figure.caption.79}% 
\contentsline {subfigure}{\numberline {(a)}{\ignorespaces {}}}{110}{subfigure.1.1}% 
\contentsline {subfigure}{\numberline {(b)}{\ignorespaces {}}}{110}{subfigure.1.2}% 
\contentsline {figure}{\numberline {A.2}{\ignorespaces The (a) production radius [mm] and (b) $p_{\mathrm {T}}$\nobreakspace {}[GeV] of the signal particles in the displaced hadron and displaced leptons samples used for the LRT performance. Plots were created by the author and published in\nobreakspace {}\cite {ATL-PHYS-PUB-2017-014}. \relax }}{110}{figure.caption.80}% 
\contentsline {subfigure}{\numberline {(a)}{\ignorespaces {}}}{110}{subfigure.2.1}% 
\contentsline {subfigure}{\numberline {(b)}{\ignorespaces {}}}{110}{subfigure.2.2}% 
\contentsline {figure}{\numberline {A.3}{\ignorespaces Reconstruction efficiency of the displaced decay products in the (a) displaced hadrons and (b) displaced leptons signal test samples, as published in\nobreakspace {}\cite {ATL-PHYS-PUB-2017-014}. The blue squares represent the reconstruction efficiency of the decay products using only large radius tracks, the red circles represent the reconstruction efficiency using only standard tracks, and the black triangles use both the standard and large radius tracks. \relax }}{111}{figure.caption.81}% 
\contentsline {subfigure}{\numberline {(a)}{\ignorespaces {}}}{111}{subfigure.3.1}% 
\contentsline {subfigure}{\numberline {(b)}{\ignorespaces {}}}{111}{subfigure.3.2}% 
\contentsline {figure}{\numberline {A.4}{\ignorespaces The technical efficiency of the displaced decay products in the (a) displaced hadrons and (b) displaced leptons signal test samples. Plots were created by the author and published in\nobreakspace {}\cite {ATL-PHYS-PUB-2017-014}. The blue squares represent the technical efficiency using only large radius tracks and the black triangles represent the technical efficiency using the combined track collection. \relax }}{112}{figure.caption.82}% 
\contentsline {subfigure}{\numberline {(a)}{\ignorespaces {}}}{112}{subfigure.4.1}% 
\contentsline {subfigure}{\numberline {(b)}{\ignorespaces {}}}{112}{subfigure.4.2}% 
\contentsline {figure}{\numberline {A.5}{\ignorespaces The fraction of reconstructed tracks which are poor-quality (open black triangles) compared to the fraction of reconstructed tracks which are matched to generated signal particles (red circles) compared to (a) the number of SCT hits used in the reconstructed track and (b) the number of TRT hits in the TRT extension of the track (if it is successful). Plots were created by the author and published in\nobreakspace {}\cite {ATL-PHYS-PUB-2017-014}. \relax }}{113}{figure.caption.83}% 
\contentsline {subfigure}{\numberline {(a)}{\ignorespaces {}}}{113}{subfigure.5.1}% 
\contentsline {subfigure}{\numberline {(b)}{\ignorespaces {}}}{113}{subfigure.5.2}% 
\contentsline {figure}{\numberline {A.6}{\ignorespaces The reconstruction efficiency from the large radius tracking (open points) and the combined track collection (filled points) considering a minimum $p_{\mathrm {T}}$\nobreakspace {}of 500\nobreakspace {}MeV (black circles) or 900\nobreakspace {}MeV (red squares). \relax }}{115}{figure.caption.84}% 
\addvspace {10\p@ }
